[
  {
    "fullname": "Sakthivel K",
    "email": "k.sakthi55555@gmail.com",
    "course": "Tamil"
  },
  {
    "fullname": "Sakthivel K",
    "email": "k.sakthi@gmail.com",
    "course": "English"
  },
  {
    "fullname": "sakthi",
    "email": "hello@gmail.com",
    "course": "Science"
  },
  {
    "fullname": "sakthi",
    "email": "hello@gmail.co",
    "course": "Science"
  }
]